横断的ネットワーク解析：基礎編
…
なお，以降は正則化手法を使ったネットワークの結果をつかって正確度と安定性を調べる。

エッジの重みの正確度

エッジの重みの正確度の推定には，bootnetパッケージのbootnet()関数を使う。nBootsでサンプル数を設定するが，プロットをなめらかにするために2500サンプルとする。nCoresで並列処理をして計算を高速化する。以下では，４コアに設定しているが，お手持ちのPCのコア数に合わせて変更ください。中心性指標も計算するために，statisticsで指定する。

accuracy_edge <- bootnet(results_gad, nBoots = 2500, nCores =4, statistics =   c("edge", "strength", "closeness", "betweenness"))

summaryで推定結果を確認できる。ただ，以下のプロットのほうが確認しやすい。

summary(accuracy_edge)

# A tibble: 42 × 17
# Groups:   type, node1, node2 [42]
   type  id    node1 node2  sample   mean      sd CIlower CIupper   q2.5   q97.5
   <chr> <chr> <chr> <chr>   <dbl>  <dbl>   <dbl>   <dbl>   <dbl>  <dbl>   <dbl>
 1 betw… gad7a gad7a ""     2      1.49   1.22    -0.444   4.44   0       4     
 2 betw… gad7b gad7b ""     2      3.18   1.91    -1.83    5.83   2       8     
 3 betw… gad7c gad7c ""     0      1.64   2.34    -4.69    4.69   0       8     
 4 betw… gad7d gad7d ""    12      9.34   2.25     7.50   16.5    4      12     
 5 betw… gad7e gad7e ""     0      0.963  1.79    -3.58    3.58   0       6     
 6 betw… gad7f gad7f ""     0      0.386  0.815   -1.63    1.63   0       2     
 7 betw… gad7g gad7g ""     0      1.11   1.58    -3.17    3.17   0       4     
 8 clos… gad7a gad7a ""     0.0257 0.0256 0.00147  0.0227  0.0286 0.0228  0.0285
 9 clos… gad7b gad7b ""     0.0260 0.0264 0.00160  0.0228  0.0292 0.0237  0.0298
10 clos… gad7c gad7c ""     0.0252 0.0257 0.00167  0.0218  0.0285 0.0226  0.0291
# … with 32 more rows, and 6 more variables: q2.5_non0 <dbl>, mean_non0 <dbl>,
#   q97.5_non0 <dbl>, var_non0 <dbl>, sd_non0 <dbl>, prop0 <dbl>
…
