横断的ネットワーク解析：基礎編
…
エッジの重みの正確度を評価する方法として，95%信頼区間を使う方法があります。その際に，ブートストラップ法を用いる。ブートストラップ法は，データ元から復元抽出（無作為に取り出したデータを戻してから取り出すことを繰り返すこと，つまり同じデータを取り出すことがある）を繰り返して，何度も取り出したデータから推定値を計算して，誤差などの性質を明らかにする方法です。95%信頼区間もブートストラップ法を用いて計算できます。

ブートストラップ法には，ノンパラメトリックとパラメトリックがあります。ノンパラメトリックブートストラップは常に使えますが，パラメトリックブートストラップはデータのパラメトリックモデルがある場合のみ使用できます。基本的にはノンパラメトリックブートストラップを使います。正則化されてない，ノンパラメトリックでは結果が不安定である，ノンパラとパラメトリックで比較したい場合のみパラメトリックブートストラップを使います。

ちなみに，ブートストラップで推定した95%信頼区間は，０をまたぐかどうかで有意性の確認にも使えますが，心理ネットワークモデルの場合は正則化されているので，避けるほうが良い。あくまで，エッジの重みの正確度を調べるために使いましょう。

それでは，エッジの重みの正確度を推定をしましょう。bootnetパッケージのbootnet()関数を使います。先程推定した結果を使って，nBootsでサンプル数を決めます。プロットをなめらかにするために2500サンプルにします。nCoresで並列処理をして計算を高速化します。以下では，４コアにしていますが，お手持ちのPCのコア数に合わせて変更ください。なお，国里のゼミ生でサーバーを使っている人は，コアは１つで実行してください。コア４つ以上ある方は，コメントアウトした方を利用ください)中心性指標も計算するために，statisticsで指定をします。

accuracy_edge <- bootnet(results_gad, nBoots = 2500, nCores =4, statistics =   c("edge", "strength", "closeness", "betweenness"))

summaryで推定結果を確認できます。ただ，以下のプロットのほうが確認がしやすいです。

summary(accuracy_edge)

## # A tibble: 42 × 17
## # Groups:   type, node1, node2 [42]
##    type  id    node1 node2  sample   mean      sd CIlower CIupper   q2.5   q97.5
##    <chr> <chr> <chr> <chr>   <dbl>  <dbl>   <dbl>   <dbl>   <dbl>  <dbl>   <dbl>
##  1 betw… gad7a gad7a ""     2      1.5    1.17    -0.337   4.34   0       4     
##  2 betw… gad7b gad7b ""     2      3.16   1.90    -1.79    5.79   2       8     
##  3 betw… gad7c gad7c ""     0      1.62   2.32    -4.64    4.64   0       8     
##  4 betw… gad7d gad7d ""    12      9.39   2.23     7.55   16.5    4      12     
##  5 betw… gad7e gad7e ""     0      1.03   1.92    -3.83    3.83   0       6     
##  6 betw… gad7f gad7f ""     0      0.375  0.809   -1.62    1.62   0       2     
##  7 betw… gad7g gad7g ""     0      1.11   1.62    -3.23    3.23   0       6     
##  8 clos… gad7a gad7a ""     0.0257 0.0257 0.00146  0.0228  0.0286 0.0228  0.0286
##  9 clos… gad7b gad7b ""     0.0260 0.0264 0.00155  0.0229  0.0291 0.0236  0.0296
## 10 clos… gad7c gad7c ""     0.0252 0.0257 0.00168  0.0218  0.0285 0.0224  0.0290
## # … with 32 more rows, and 6 more variables: q2.5_non0 <dbl>, mean_non0 <dbl>,
## #   q97.5_non0 <dbl>, var_non0 <dbl>, sd_non0 <dbl>, prop0 <dbl>
## # ℹ Use `print(n = ...)` to see more rows, and `colnames()` to see all variable names
…
